A Madrid
B [dead]
C [dead]
D Austin
E Barcelona
F Dallas
G Providence
H [dead]
I [dead]
J [dead]
K Nashville
L London
M [dead]
N Seattle
O [dead]
P Singapore
Q Berlin
R [dead]
S [dead]
T Taipei
U Beijing
V [dead]
W Sydney
X Cairo
Y [dead]
Z [dead]
