.....
----------------------------------------------------------------------
Ran 5 tests in 0.004s

OK
Name               Stmts   Miss Branch BrPart  Cover   Missing
--------------------------------------------------------------
Diplomacy.py          96      0     30      0   100%
TestDiplomacy.py      31      0      0      0   100%
--------------------------------------------------------------
TOTAL                127      0     30      0   100%
