A [dead]
B Lagos
C Chongqing
D Lebanon
E Mumbai
F [dead]
G Austin
H Dallas
I Amman
J NewYork
K Houston
L Cairo
M [dead]
N Tokyo
O [dead]
P Moscow
Q Delhi
R Paris
S [dead]
T [dead]
U [dead]
V [dead]
W Mexico
X [dead]
Y [dead]
Z [dead]
