....
----------------------------------------------------------------------
Ran 4 tests in 0.000s

OK
Name               Stmts   Miss Branch BrPart  Cover   Missing
--------------------------------------------------------------
Diplomacy.py          79      0     40      0   100%
TestDiplomacy.py      26      0      0      0   100%
--------------------------------------------------------------
TOTAL                105      0     40      0   100%
